%YAML 1.1
%TAG !u! tag:unity3d.com,2011:
--- !u!114 &11400000
MonoBehaviour:
  m_ObjectHideFlags: 0
  m_CorrespondingSourceObject: {fileID: 0}
  m_PrefabInstance: {fileID: 0}
  m_PrefabAsset: {fileID: 0}
  m_GameObject: {fileID: 0}
  m_Enabled: 1
  m_EditorHideFlags: 0
  m_Script: {fileID: 11500000, guid: 2ad5539346e06aa43a227d458b54aff1, type: 3}
  m_Name: Weapon_BurstRifle
  m_EditorClassIdentifier: 
  name: BurstRifle
  icon: {fileID: 21300000, guid: 3c187e19c32c13542ba8a0c1a3a88ece, type: 3}
  showInInventory: 1
  itemType: 2
  weaponPrefab: {fileID: 4541406103979953208, guid: 7da5c6a8076d4ed40bcc49ac9237ab4b,
    type: 3}
